\relax 
\providecommand\hyper@newdestlabel[2]{}
\providecommand\HyperFirstAtBeginDocument{\AtBeginDocument}
\HyperFirstAtBeginDocument{\ifx\hyper@anchor\@undefined
\global\let\oldcontentsline\contentsline
\gdef\contentsline#1#2#3#4{\oldcontentsline{#1}{#2}{#3}}
\global\let\oldnewlabel\newlabel
\gdef\newlabel#1#2{\newlabelxx{#1}#2}
\gdef\newlabelxx#1#2#3#4#5#6{\oldnewlabel{#1}{{#2}{#3}}}
\AtEndDocument{\ifx\hyper@anchor\@undefined
\let\contentsline\oldcontentsline
\let\newlabel\oldnewlabel
\fi}
\fi}
\global\let\hyper@last\relax 
\gdef\HyperFirstAtBeginDocument#1{#1}
\providecommand*\HyPL@Entry[1]{}
\HyPL@Entry{0<</S/D>>}
\@writefile{toc}{\contentsline {section}{\numberline {1}Introduction}{2}{section.1}}
\@writefile{toc}{\contentsline {subsection}{\numberline {1.1}Animals detection}{2}{subsection.1.1}}
\@writefile{lof}{\contentsline {figure}{\numberline {1}{\ignorespaces One picture taken by the drone at the end of day\relax }}{2}{figure.caption.1}}
\@writefile{toc}{\contentsline {subsection}{\numberline {1.2}Activity recognition}{3}{subsection.1.2}}
\@writefile{lof}{\contentsline {figure}{\numberline {2}{\ignorespaces Extracted Sleeping goat from pasture, between 20x15 and 30x20 pixels\relax }}{3}{figure.caption.2}}
\@writefile{lof}{\contentsline {figure}{\numberline {3}{\ignorespaces Extracted Eating/Walking goats from pasture, between 10x15 and 40x15 pixels\relax }}{3}{figure.caption.3}}
\@writefile{toc}{\contentsline {section}{\numberline {2}Material and data}{4}{section.2}}
\@writefile{toc}{\contentsline {subsection}{\numberline {2.1}animals}{4}{subsection.2.1}}
\@writefile{toc}{\contentsline {subsection}{\numberline {2.2}camera}{4}{subsection.2.2}}
\@writefile{toc}{\contentsline {subsection}{\numberline {2.3}drones}{4}{subsection.2.3}}
\@writefile{toc}{\contentsline {subsection}{\numberline {2.4}data}{4}{subsection.2.4}}
\citation{SkinColor}
\citation{WeedRemoval}
\citation{HoughEllipse}
\citation{ShapeDescriptor}
\@writefile{toc}{\contentsline {section}{\numberline {3}Methods}{5}{section.3}}
\@writefile{toc}{\contentsline {subsection}{\numberline {3.1}Preliminary study}{5}{subsection.3.1}}
\@writefile{lof}{\contentsline {figure}{\numberline {4}{\ignorespaces Saturated image with detected features displayed\relax }}{5}{figure.caption.4}}
\providecommand*\caption@xref[2]{\@setref\relax\@undefined{#1}}
\newlabel{fig:preliminary-study}{{4}{5}{Saturated image with detected features displayed\relax }{figure.caption.4}{}}
\citation{SkinColor}
\citation{HoughEllipse}
\citation{ShapeDescriptor}
\@writefile{toc}{\contentsline {subsection}{\numberline {3.2}Algorithm steep}{6}{subsection.3.2}}
\newlabel{sec:algorithm_steep}{{3.2}{6}{Algorithm steep}{subsection.3.2}{}}
\@writefile{lof}{\contentsline {figure}{\numberline {5}{\ignorespaces Each algorithm section and there respective steep\relax }}{6}{figure.caption.5}}
\newlabel{fig:algorithm-steep}{{5}{6}{Each algorithm section and there respective steep\relax }{figure.caption.5}{}}
\citation{SkinColor}
\citation{WeedRemoval}
\citation{SkinColor}
\citation{WeedRemoval}
\@writefile{toc}{\contentsline {subsection}{\numberline {3.3}Feature detection in the pasture}{7}{subsection.3.3}}
\newlabel{sec:color_space}{{3.3}{7}{Feature detection in the pasture}{subsection.3.3}{}}
\@writefile{toc}{\contentsline {subsubsection}{\numberline {3.3.1}Steep 1 : Color space manipulation}{7}{subsubsection.3.3.1}}
\newlabel{sec:section_1_steep_1}{{3.3.1}{7}{Steep 1 : Color space manipulation}{subsubsection.3.3.1}{}}
\@writefile{lof}{\contentsline {figure}{\numberline {6}{\ignorespaces The pasture shot after the color space manipulation\relax }}{7}{figure.caption.6}}
\newlabel{fig:pasture-color-space}{{6}{7}{The pasture shot after the color space manipulation\relax }{figure.caption.6}{}}
\citation{SegmentationTechniques}
\citation{CannyEdge}
\citation{HoughEllipse}
\@writefile{toc}{\contentsline {subsubsection}{\numberline {3.3.2}Feature detection}{8}{subsubsection.3.3.2}}
\newlabel{sec:section_1_steep_2}{{3.3.2}{8}{Feature detection}{subsubsection.3.3.2}{}}
\@writefile{lof}{\contentsline {figure}{\numberline {7}{\ignorespaces The pasture shot after thresholding\relax }}{8}{figure.caption.7}}
\newlabel{fig:pasture-threshold}{{7}{8}{The pasture shot after thresholding\relax }{figure.caption.7}{}}
\@writefile{lof}{\contentsline {figure}{\numberline {8}{\ignorespaces Detected features, ellipse color correspond to the last filtering process, goat appears in blue ellipse, non goat appear in violet and red for different filtering stage\relax }}{8}{figure.caption.8}}
\newlabel{fig:pasture-features}{{8}{8}{Detected features, ellipse color correspond to the last filtering process, goat appears in blue ellipse, non goat appear in violet and red for different filtering stage\relax }{figure.caption.8}{}}
\@writefile{toc}{\contentsline {subsubsection}{\numberline {3.3.3}Extracting area}{8}{subsubsection.3.3.3}}
\newlabel{sec:section_1_steep_3}{{3.3.3}{8}{Extracting area}{subsubsection.3.3.3}{}}
\citation{SkinColor}
\citation{WeedRemoval}
\@writefile{toc}{\contentsline {subsection}{\numberline {3.4}Section 2 : Color plane selection}{9}{subsection.3.4}}
\newlabel{sec:recognition}{{3.4}{9}{Section 2 : Color plane selection}{subsection.3.4}{}}
\@writefile{toc}{\contentsline {subsubsection}{\numberline {3.4.1}Color space manipulation}{9}{subsubsection.3.4.1}}
\newlabel{sec:section_2_steep_1}{{3.4.1}{9}{Color space manipulation}{subsubsection.3.4.1}{}}
\@writefile{lof}{\contentsline {figure}{\numberline {9}{\ignorespaces Each color space manipulation steep of the saturated version\relax }}{9}{figure.caption.9}}
\newlabel{fig:color-space-manipulation}{{9}{9}{Each color space manipulation steep of the saturated version\relax }{figure.caption.9}{}}
\@writefile{lof}{\contentsline {figure}{\numberline {10}{\ignorespaces upper right detection plane is the desaturated one\relax }}{10}{figure.caption.10}}
\newlabel{fig:detection-plane-bis}{{10}{10}{upper right detection plane is the desaturated one\relax }{figure.caption.10}{}}
\citation{MorphologicalOperator}
\@writefile{lof}{\contentsline {figure}{\numberline {11}{\ignorespaces Each steep to produce the desaturated color plane, from upper left to lower right\relax }}{11}{figure.caption.11}}
\newlabel{fig:color-space-desaturated}{{11}{11}{Each steep to produce the desaturated color plane, from upper left to lower right\relax }{figure.caption.11}{}}
\@writefile{toc}{\contentsline {subsubsection}{\numberline {3.4.2}Split color planes}{11}{subsubsection.3.4.2}}
\newlabel{sec:section_2_steep_2}{{3.4.2}{11}{Split color planes}{subsubsection.3.4.2}{}}
\@writefile{lof}{\contentsline {figure}{\numberline {12}{\ignorespaces  upper left saturated red, lower left saturated blue, upper right difference between red and blue, lower right the desaturated color plane. the upper number is the aspect ratio, and the lower is the distance to the best solidity factor \relax }}{11}{figure.caption.12}}
\newlabel{fig:3-detection-plane}{{12}{11}{upper left saturated red, lower left saturated blue, upper right difference between red and blue, lower right the desaturated color plane. the upper number is the aspect ratio, and the lower is the distance to the best solidity factor \relax }{figure.caption.12}{}}
\@writefile{toc}{\contentsline {subsubsection}{\numberline {3.4.3}Plane selection}{12}{subsubsection.3.4.3}}
\newlabel{sec:section_2_steep_3}{{3.4.3}{12}{Plane selection}{subsubsection.3.4.3}{}}
\citation{ShapeDescriptor}
\@writefile{toc}{\contentsline {subsection}{\numberline {3.5}Section 3 : Activity detection}{13}{subsection.3.5}}
\newlabel{sec:activity}{{3.5}{13}{Section 3 : Activity detection}{subsection.3.5}{}}
\@writefile{toc}{\contentsline {subsubsection}{\numberline {3.5.1}shape detection}{13}{subsubsection.3.5.1}}
\newlabel{sec:section_3_steep_1}{{3.5.1}{13}{shape detection}{subsubsection.3.5.1}{}}
\@writefile{toc}{\contentsline {subsubsection}{\numberline {3.5.2}shape descriptor}{13}{subsubsection.3.5.2}}
\newlabel{sec:section_3_steep_2}{{3.5.2}{13}{shape descriptor}{subsubsection.3.5.2}{}}
\citation{PerceptronLearning}
\@writefile{toc}{\contentsline {subsubsection}{\numberline {3.5.3}hyperplane classification}{14}{subsubsection.3.5.3}}
\newlabel{sec:section_3_steep_3}{{3.5.3}{14}{hyperplane classification}{subsubsection.3.5.3}{}}
\@writefile{lof}{\contentsline {figure}{\numberline {13}{\ignorespaces  the green section is the color space configuration, using default parameters, the orange is a manual classification database where the learning process is getting data, the blue section is the learning process that should be re-run, we save the learned parameters for further use in automatic detection and classification in yellow section \relax }}{14}{figure.caption.13}}
\newlabel{fig:procedure_steep}{{13}{14}{the green section is the color space configuration, using default parameters, the orange is a manual classification database where the learning process is getting data, the blue section is the learning process that should be re-run, we save the learned parameters for further use in automatic detection and classification in yellow section \relax }{figure.caption.13}{}}
\@writefile{toc}{\contentsline {subsection}{\numberline {3.6}Section 4 : Animals filtering}{17}{subsection.3.6}}
\newlabel{sec:filtering}{{3.6}{17}{Section 4 : Animals filtering}{subsection.3.6}{}}
\@writefile{lof}{\contentsline {figure}{\numberline {14}{\ignorespaces  possible goat are in blue, violet one are shape/texture/correlation filtered, and red are the smaller and biggest one that is excluded \relax }}{17}{figure.caption.14}}
\newlabel{fig:detection_feature}{{14}{17}{possible goat are in blue, violet one are shape/texture/correlation filtered, and red are the smaller and biggest one that is excluded \relax }{figure.caption.14}{}}
\@writefile{toc}{\contentsline {subsubsection}{\numberline {3.6.1}filter by shape}{17}{subsubsection.3.6.1}}
\newlabel{sec:section_4_steep_1}{{3.6.1}{17}{filter by shape}{subsubsection.3.6.1}{}}
\@writefile{toc}{\contentsline {subsubsection}{\numberline {3.6.2}filter by texture}{17}{subsubsection.3.6.2}}
\newlabel{sec:section_4_steep_2}{{3.6.2}{17}{filter by texture}{subsubsection.3.6.2}{}}
\@writefile{toc}{\contentsline {subsubsection}{\numberline {3.6.3}filter by histogram}{17}{subsubsection.3.6.3}}
\newlabel{sec:section_4_steep_3}{{3.6.3}{17}{filter by histogram}{subsubsection.3.6.3}{}}
\@writefile{toc}{\contentsline {section}{\numberline {4}Results and discussion}{18}{section.4}}
\citation{SegmentationTechniques}
\citation{MorphologicalOperator}
\citation{CannyEdge}
\@writefile{toc}{\contentsline {section}{\numberline {5}Conclusion}{19}{section.5}}
\@writefile{toc}{\contentsline {section}{\numberline {6}Further research}{20}{section.6}}
\newlabel{sec:further_research}{{6}{20}{Further research}{section.6}{}}
\@writefile{toc}{\contentsline {section}{\numberline {7}Acknowledgment}{20}{section.7}}
\bibcite{SegmentationTechniques}{1}
\bibcite{SkinColor}{2}
\bibcite{WeedRemoval}{3}
\bibcite{EdgeDetection}{4}
\bibcite{MorphologicalOperator}{5}
\bibcite{CannyEdge}{6}
\bibcite{HoughEllipse}{7}
\bibcite{TextureClassification}{8}
\bibcite{ShapeDescriptor}{9}
\bibcite{ShapeSimilarity}{10}
\bibcite{}{11}
\bibcite{PerceptronLearning}{12}
