name;area;aspect;state;status;solidity;extent;equivalentiameter;measure1;measure2;measure3;measure4;measure5;measure6;measure7;measure8;measure9;measure10;measure11;measure12;measure13;measure14;measure15
1;380;0.201503;0;1;1.36513;652.52;0.0454625;0.600752;0.335419;0.643422;0.829997;0.201503;4154.37;0.521304;0.278397;0.534039;0.000226061;0.201503;0.285197;0.149411;-3.28233e-07;0.149411
2;107.5;0.229176;0;1;1.65533;512.608;0.0854753;0.614588;0.372894;0.402501;0.63941;0.229176;3810.61;0.926442;0.238432;0.257363;0.000240905;0.229176;0.066236;0.0611932;-3.28233e-07;0.0611932
3;228.5;0.258659;0;1;0.334963;431.37;0.0586276;0.62933;0.411008;0.66368;0.786411;0.258659;2365.51;0.619285;0.323221;0.521926;0.000378984;0.258659;0.272406;0.174451;-3.28233e-07;0.174451
4;81.5;0.258675;0;1;1.14766;702.137;0.0981671;0.629337;0.411027;0.310682;0.56621;0.258675;5347.47;1.32298;0.232728;0.175911;0.000167646;0.258675;0.0309448;0.0382296;-3.28233e-07;0.0382296
5;236.5;0.26423;0;1;2.3044;499.252;0.0576274;0.632115;0.418009;0.631547;0.768485;0.26423;2754.7;0.661882;0.321234;0.485334;0.000324007;0.26423;0.235549;0.159369;-3.28233e-07;0.159369
6;359;0.278031;0;1;2.16154;566.169;0.0467733;0.639016;0.435093;0.74142;0.820379;0.278031;2811.41;0.586838;0.356942;0.608246;0.000314043;0.278031;0.369963;0.224467;-3.28233e-07;0.224467
7;452.5;0.279313;0;1;0.405797;690.094;0.0416616;0.639657;0.436661;0.754934;0.82915;0.279313;3378.35;0.57841;0.362058;0.625954;0.00026108;0.279313;0.391818;0.233191;-3.28233e-07;0.233191
8;326.5;0.279352;0;1;0.362939;528.189;0.049046;0.639676;0.436709;0.733024;0.828298;0.279352;2588.13;0.595764;0.361725;0.607162;0.000340784;0.279352;0.368645;0.219865;-3.28233e-07;0.219865
9;150.5;0.284992;0;1;5.84698;248.418;0.0722398;0.642496;0.44357;0.729757;0.803316;0.284992;1235.69;0.607833;0.356327;0.586225;0.000710634;0.284992;0.34366;0.219835;-3.28233e-07;0.219835
10;377;0.286798;0;1;0.445148;555.115;0.045643;0.643399;0.445754;0.774001;0.85721;0.286798;2574.99;0.575909;0.382105;0.663482;0.000340541;0.286798;0.440208;0.247996;-3.28233e-07;0.247996
11;67;0.293087;0;1;1.1679;606.206;0.10827;0.646544;0.453314;0.314111;0.487372;0.293087;4863.35;1.44317;0.220933;0.153089;0.000179429;0.293087;0.0234362;0.0412441;-3.28233e-07;0.0412441
12;213.5;0.297271;0;1;4.16912;352.416;0.0606521;0.648636;0.458302;0.738247;0.780962;0.297271;1745.22;0.620798;0.357916;0.576542;0.000498396;0.297271;0.332401;0.2293;-3.28233e-07;0.2293
13;186;0.297357;0;1;0.417625;269.609;0.0649813;0.648678;0.458404;0.787869;0.82448;0.297357;1264.39;0.581828;0.377945;0.649583;0.000687884;0.297357;0.421957;0.261196;-3.28233e-07;0.261196
14;331;0.30221;0;1;5.32143;458.986;0.0487114;0.651105;0.464149;0.809045;0.808738;0.30221;2167.25;0.5737;0.375375;0.654306;0.000399821;0.30221;0.428116;0.27749;-3.28233e-07;0.27749
15;12;0.304605;0;1;6.91319;204.195;0.255832;0.652303;0.466969;0.231442;0.813092;0.304605;953.216;2.01765;0.379689;0.188184;0.000907371;0.304605;0.0354132;0.0227921;-3.28233e-07;0.0227921
16;287;0.30566;0;1;0.416031;436.986;0.0523123;0.65283;0.468208;0.774429;0.812886;0.30566;2035.04;0.604584;0.3806;0.629523;0.000424669;0.30566;0.396299;0.255601;-3.28233e-07;0.255601
17;373.5;0.306238;0;1;0.370629;641.88;0.0458564;0.653119;0.468886;0.729308;0.804183;0.306238;3017.22;0.642919;0.37707;0.586497;0.000286303;0.306238;0.343979;0.226885;-3.28233e-07;0.226885
18;284;0.307854;0;1;0.411839;472.322;0.0525879;0.653927;0.470777;0.7424;0.841739;0.307854;2112.62;0.634129;0.396272;0.624907;0.00040839;0.307854;0.390509;0.235687;-3.28233e-07;0.235687
19;489.5;0.312445;0;1;0.443163;694.213;0.0400561;0.656223;0.476127;0.807088;0.874247;0.312445;2956.04;0.589932;0.416252;0.705594;0.000290846;0.312445;0.497863;0.280507;-3.28233e-07;0.280507
20;434.5;0.312959;0;1;0.351261;716.659;0.0425158;0.656479;0.476723;0.748714;0.823531;0.312959;3235.5;0.636722;0.392596;0.616589;0.000265621;0.312959;0.380182;0.241587;-3.28233e-07;0.241587
21;462;0.313351;0;1;0.415447;671.702;0.041231;0.656676;0.477178;0.797724;0.824245;0.313351;3027.01;0.598175;0.393312;0.65752;0.000283831;0.313351;0.432333;0.274414;-3.28233e-07;0.274414
22;312;0.31555;0;1;0.411628;471.756;0.0501727;0.657775;0.479723;0.783665;0.838813;0.31555;2077.96;0.612153;0.402398;0.657348;0.000412773;0.31555;0.432106;0.265714;-3.28233e-07;0.265714
23;312;0.31555;0;1;2.73837;471.756;0.0501727;0.657775;0.479723;0.783665;0.838813;0.31555;2077.96;0.612153;0.402398;0.657348;0.000412773;0.31555;0.432106;0.265714;-3.28233e-07;0.265714
24;343.5;0.319561;0;1;0.404366;540.134;0.0478169;0.659781;0.484345;0.770984;0.823367;0.319561;2400.65;0.628216;0.398793;0.634802;0.000356203;0.319561;0.402974;0.258756;-3.28233e-07;0.258756
25;343.5;0.319561;0;1;0.404366;540.134;0.0478169;0.659781;0.484345;0.770984;0.823367;0.319561;2400.65;0.628216;0.398793;0.634802;0.000356203;0.319561;0.402974;0.258756;-3.28233e-07;0.258756
26;440.5;0.319592;0;1;0.418664;659.035;0.0422252;0.659796;0.48438;0.790428;0.828297;0.319592;2911.46;0.612808;0.401211;0.654709;0.0002937;0.319592;0.428644;0.271984;-3.28233e-07;0.271984
27;183;0.32141;0;1;4.62398;247.954;0.0655118;0.660705;0.486465;0.831796;0.824292;0.32141;1096.01;0.584837;0.40099;0.685643;0.000779119;0.32141;0.470106;0.302029;-3.28233e-07;0.302029
28;343.5;0.323117;0;1;3.72857;516.398;0.0478169;0.661559;0.488418;0.790748;0.802787;0.323117;2334.36;0.617666;0.392096;0.634802;0.000365334;0.323117;0.402974;0.273661;-3.28233e-07;0.273661
29;210;0.325396;0;1;4.60478;286.731;0.0611555;0.662698;0.491017;0.831223;0.853297;0.325396;1212.98;0.590716;0.418983;0.70928;0.000701869;0.325396;0.503078;0.303436;-3.28233e-07;0.303436
30;433.5;0.32745;0;1;0.41323;664.132;0.0425648;0.663725;0.493352;0.785972;0.82885;0.32745;2878.7;0.627697;0.408915;0.651453;0.000295285;0.32745;0.424391;0.272139;-3.28233e-07;0.272139
31;476;0.328214;0;1;0.36376;843.739;0.0406201;0.664107;0.494219;0.731131;0.810168;0.328214;3734.99;0.675965;0.4004;0.592338;0.000227456;0.328214;0.350865;0.235758;-3.28233e-07;0.235758
32;415;0.329843;0;1;0.402249;611.763;0.0435032;0.664922;0.496064;0.802732;0.796745;0.329843;2743.48;0.617969;0.395236;0.639573;0.000309281;0.329843;0.409054;0.284894;-3.28233e-07;0.284894
33;398.5;0.333288;0;1;0.426641;598.785;0.0443947;0.666644;0.499949;0.797167;0.856533;0.333288;2478.43;0.627157;0.428222;0.6828;0.000341472;0.333288;0.466215;0.282414;-3.28233e-07;0.282414
34;69.5;0.335711;0;1;2.14502;552.388;0.106305;0.667856;0.502671;0.347237;0.65578;0.335711;2970.15;1.44763;0.329641;0.227711;0.000284423;0.335711;0.0518522;0.0537795;-3.28233e-07;0.0537795
35;272;0.341462;0;1;3.45441;370.936;0.0537354;0.670731;0.50909;0.841808;0.859862;0.341462;1501.93;0.604757;0.437747;0.723839;0.000560049;0.341462;0.523942;0.318804;-3.28233e-07;0.318804
36;64.5;0.351267;0;1;0.728056;716.294;0.110348;0.675634;0.519908;0.297028;0.4287;0.351267;5696.21;1.75037;0.222885;0.127336;0.000146598;0.351267;0.0162144;0.0402732;-3.28233e-07;0.0402732
37;145;0.351435;0;1;0.440722;213.322;0.0735971;0.675717;0.520091;0.816165;0.884769;0.351435;821.678;0.637238;0.460161;0.722118;0.00101615;0.351435;0.521454;0.304149;-3.28233e-07;0.304149
38;165;0.357101;0;1;0.10509;706.948;0.0689927;0.678551;0.526271;0.480084;0.705888;0.357101;3373.01;1.09621;0.371488;0.338885;0.000246505;0.357101;0.114843;0.10612;-3.28233e-07;0.10612
39;423.5;0.361693;0;1;0.387889;726.394;0.0430644;0.680847;0.53124;0.761056;0.82646;0.361693;2932.48;0.698031;0.439049;0.628982;0.00028258;0.361693;0.395618;0.268492;-3.28233e-07;0.268492
40;195.5;0.362276;0;1;0.465021;258.29;0.0633828;0.681138;0.531869;0.86748;0.854451;0.362276;1007.37;0.613119;0.454456;0.741219;0.000822242;0.362276;0.549406;0.349132;-3.28233e-07;0.349132
41;181;0.363325;0;1;0.323965;375.068;0.0658727;0.681663;0.532999;0.693135;0.803828;0.363325;1551.66;0.768968;0.428439;0.557161;0.000533408;0.363325;0.310428;0.223241;-3.28233e-07;0.223241
42;28;0.367192;0;1;1.42551;471.327;0.167481;0.683596;0.537148;0.243792;0.467706;0.367192;3325.3;2.2033;0.251227;0.114023;0.000248196;0.367192;0.0130012;0.027774;-3.28233e-07;0.027774
43;444;0.369339;0;1;2.71127;711.124;0.0420585;0.68467;0.539441;0.791417;0.858941;0.369339;2720.27;0.681614;0.463348;0.679781;0.000302922;0.369339;0.462102;0.293611;-3.28233e-07;0.293611
44;48.5;0.369345;0;1;1.97289;532.877;0.127255;0.684673;0.539448;0.302166;0.516226;0.369345;3391.66;1.78527;0.278477;0.155986;0.000242957;0.369345;0.0243316;0.0428013;-3.28233e-07;0.0428013
45;53;0.370573;0;1;1.5232;486.392;0.121733;0.685286;0.540756;0.330875;0.483439;0.370573;3297.76;1.63432;0.261422;0.159958;0.000249652;0.370573;0.0255866;0.051413;-3.28233e-07;0.051413
46;171;0.370575;0;1;0.460648;224.798;0.0677715;0.685287;0.540758;0.874223;0.862815;0.370575;853.978;0.618559;0.466574;0.754292;0.000964064;0.370575;0.568957;0.358913;-3.28233e-07;0.358913
47;420.5;0.37419;0;1;0.398637;696.108;0.0432177;0.687095;0.544598;0.780781;0.846514;0.37419;2676.34;0.697504;0.461009;0.660942;0.000306808;0.37419;0.436844;0.287801;-3.28233e-07;0.287801
48;314;0.374817;0;1;2.56955;424.534;0.0500127;0.687409;0.545261;0.864288;0.874468;0.374817;1578.12;0.630879;0.476813;0.755792;0.000520081;0.374817;0.571222;0.352977;-3.28233e-07;0.352977
49;289.5;0.376816;0;1;0.437166;466.691;0.052086;0.688408;0.547373;0.792471;0.878177;0.376816;1720.84;0.690717;0.48069;0.695929;0.000476255;0.376816;0.484318;0.297617;-3.28233e-07;0.297617
50;175.5;0.376887;0;1;0.426778;245.81;0.066897;0.688443;0.547448;0.85022;0.834566;0.376887;953.61;0.64389;0.456881;0.709565;0.000859382;0.376887;0.503482;0.342609;-3.28233e-07;0.342609
51;288.5;0.377066;0;1;0.436997;465.979;0.0521762;0.688533;0.547636;0.791824;0.877375;0.377066;1718.95;0.691614;0.480483;0.694726;0.000476691;0.377066;0.482645;0.297239;-3.28233e-07;0.297239
52;271;0.379148;0;1;0.464724;350.439;0.0538345;0.689574;0.549829;0.886048;0.865652;0.379148;1305.02;0.620541;0.475961;0.767009;0.000626943;0.379148;0.588303;0.373315;-3.28233e-07;0.373315
53;271;0.379148;0;1;0.464724;350.439;0.0538345;0.689574;0.549829;0.886048;0.865652;0.379148;1305.02;0.620541;0.475961;0.767009;0.000626943;0.379148;0.588303;0.373315;-3.28233e-07;0.373315
54;271;0.379148;0;1;0.464724;350.439;0.0538345;0.689574;0.549829;0.886048;0.865652;0.379148;1305.02;0.620541;0.475961;0.767009;0.000626943;0.379148;0.588303;0.373315;-3.28233e-07;0.373315
55;360.5;0.379973;0;1;0.443709;516.522;0.0466759;0.689987;0.550696;0.842169;0.851663;0.379973;1952.02;0.653903;0.469008;0.717244;0.00041889;0.379973;0.514438;0.33766;-3.28233e-07;0.33766
56;170.5;0.380212;0;1;0.478049;223.646;0.0678708;0.690106;0.550947;0.880305;0.898417;0.380212;800.846;0.625859;0.49498;0.790882;0.00102085;0.380212;0.625494;0.369061;-3.28233e-07;0.369061
57;362.5;0.382554;0;1;0.43319;531.339;0.0465469;0.691277;0.553402;0.833907;0.876633;0.382554;1941.28;0.663625;0.48513;0.73103;0.000420421;0.382554;0.534405;0.332307;-3.28233e-07;0.332307
58;208;0.382838;0;1;0.463035;292.896;0.0614488;0.691419;0.553699;0.850935;0.863264;0.382838;1086.1;0.650695;0.477988;0.734581;0.000751299;0.382838;0.53961;0.346159;-3.28233e-07;0.346159
59;165;0.388885;0;1;0.468137;226.661;0.0689927;0.694442;0.559996;0.864536;0.891011;0.388885;805.163;0.647741;0.498962;0.770311;0.00100903;0.388885;0.593379;0.360444;-3.28233e-07;0.360444
60;223;0.389032;0;1;0.465201;295.473;0.0593461;0.694516;0.560148;0.880358;0.880598;0.389032;1061.72;0.636274;0.493265;0.775241;0.000765123;0.389032;0.600998;0.373838;-3.28233e-07;0.373838
61;354;0.399189;0;1;3.16216;498.433;0.0471024;0.699594;0.5706;0.858808;0.890063;0.399189;1739.52;0.66441;0.50787;0.764394;0.000463607;0.399189;0.584298;0.360982;-3.28233e-07;0.360982
62;532.5;0.400444;0;1;0.411392;776.518;0.0384048;0.700222;0.571881;0.84445;0.818674;0.400444;2939.75;0.677223;0.468184;0.691329;0.000274081;0.400444;0.477936;0.349639;-3.28233e-07;0.349639
63;242;0.407261;0;1;0.468966;324.881;0.0569688;0.70363;0.578799;0.883268;0.886512;0.407261;1122.24;0.655293;0.513112;0.783028;0.000714487;0.407261;0.613132;0.386255;-3.28233e-07;0.386255
64;284.5;0.413752;0;1;0.409091;461.932;0.0525417;0.706876;0.585325;0.805813;0.810966;0.413752;1724.86;0.726378;0.474679;0.653487;0.000462731;0.413752;0.427045;0.324455;-3.28233e-07;0.324455
65;17;0.41733;0;1;1.97875;457.321;0.214942;0.708665;0.588896;0.198321;0.46495;0.41733;2960.41;2.96941;0.273807;0.0922091;0.000268926;0.41733;0.00850251;0.0197523;-3.28233e-07;0.0197523
66;238.5;0.420622;0;1;0.429245;351.666;0.0573853;0.710311;0.592166;0.84846;0.82528;0.420622;1275.44;0.697931;0.488703;0.700217;0.000622753;0.420622;0.490304;0.363212;-3.28233e-07;0.363212
67;309;0.42104;0;1;3.28591;409.448;0.0504157;0.71052;0.59258;0.895201;0.887568;0.42104;1379.83;0.661952;0.525955;0.794551;0.000575471;0.42104;0.631312;0.40457;-3.28233e-07;0.40457
68;187.5;0.425281;0;1;0.475664;251.179;0.0647209;0.712641;0.596768;0.892138;0.870175;0.425281;857.325;0.668919;0.519293;0.776316;0.000923441;0.425281;0.602667;0.404208;-3.28233e-07;0.404208
69;171;0.432943;0;1;0.471429;226.952;0.0677715;0.716472;0.604271;0.899504;0.866773;0.432943;768.017;0.671783;0.523766;0.779666;0.00102531;0.432943;0.607879;0.41534;-3.28233e-07;0.41534
70;257;0.433327;0;1;0.436747;364.895;0.0552813;0.716664;0.604645;0.869822;0.854866;0.433327;1251.25;0.695137;0.51689;0.743581;0.000629166;0.433327;0.552912;0.38859;-3.28233e-07;0.38859
71;287.5;0.43411;0;1;0.447514;407.161;0.0522668;0.717055;0.605407;0.871241;0.848007;0.43411;1405.71;0.694878;0.513389;0.738819;0.00055973;0.43411;0.545853;0.390285;-3.28233e-07;0.390285
72;191.5;0.437938;0;1;0.471983;250.025;0.0640414;0.718969;0.609119;0.908957;0.898863;0.437938;809.401;0.67013;0.547515;0.817028;0.000969508;0.437938;0.667534;0.427078;-3.28233e-07;0.427078
73;337;0.441278;0;1;0.457108;448.167;0.0482759;0.720639;0.612343;0.901963;0.866606;0.441278;1496.92;0.6789;0.53066;0.781647;0.000523009;0.441278;0.610971;0.422486;-3.28233e-07;0.422486
74;150.5;0.443033;0;1;5.04822;205.884;0.0722398;0.721516;0.61403;0.889987;0.859223;0.443033;691.675;0.689932;0.527589;0.764697;0.00113052;0.443033;0.584762;0.412344;-3.28233e-07;0.412344
75;272;0.443736;0;0.8;2.84328;368.549;0.0537354;0.721868;0.614705;0.894533;0.855164;0.443736;1242.66;0.68718;0.525674;0.764973;0.000628946;0.443736;0.585183;0.416974;-3.28233e-07;0.416974
76;188.5;0.44931;0;1;5.10115;265.958;0.064549;0.724655;0.620033;0.87871;0.822324;0.44931;924.551;0.705617;0.509868;0.722584;0.000842098;0.44931;0.522128;0.405465;-3.28233e-07;0.405465
77;455.5;0.452066;0;1;0.323714;847.574;0.0415241;0.726033;0.622652;0.766046;0.704821;0.452066;3423.17;0.812813;0.438858;0.539926;0.000227008;0.452066;0.29152;0.309331;-3.28233e-07;0.309331
78;161.5;0.452972;0;1;0.462871;218.277;0.0697363;0.726486;0.623511;0.899177;0.868323;0.452972;714.592;0.693424;0.541409;0.780777;0.00108678;0.452972;0.609612;0.426722;-3.28233e-07;0.426722
79;345;0.45527;0;1;0.471464;456.76;0.0477129;0.727635;0.625685;0.909371;0.891095;0.45527;1452.06;0.688041;0.557544;0.810336;0.000533983;0.45527;0.656645;0.437834;-3.28233e-07;0.437834
80;270.5;0.456298;0;1;0.444606;383.494;0.0538842;0.728149;0.626655;0.879151;0.822087;0.456298;1319.43;0.712795;0.515165;0.722739;0.000587243;0.456298;0.522352;0.409796;-3.28233e-07;0.409796
81;262.5;0.45805;0;1;0.452454;360.892;0.0546991;0.729025;0.628305;0.893399;0.896632;0.45805;1135.45;0.703275;0.563359;0.80105;0.000681578;0.45805;0.641681;0.424205;-3.28233e-07;0.424205
82;292;0.459777;0;1;3.27221;380.383;0.0518625;0.729889;0.629928;0.918445;0.886168;0.459777;1207.78;0.685863;0.558222;0.813897;0.00064;0.459777;0.662428;0.449386;-3.28233e-07;0.449386
83;557.5;0.462401;0;0.8;0.448661;781.16;0.0375338;0.731201;0.632386;0.886504;0.890864;0.462401;2457.65;0.713349;0.56337;0.789755;0.000313955;0.462401;0.623712;0.420179;-3.28233e-07;0.420179
84;210.5;0.462528;0;1;3.85496;280.892;0.0610828;0.731264;0.632505;0.908462;0.877371;0.462528;897.152;0.696237;0.554942;0.797058;0.000859973;0.462528;0.635302;0.441328;7.00649e-45;0.441328
85;248.5;0.467412;0;1;5.15894;329.736;0.0562188;0.733706;0.637056;0.912774;0.872305;0.467412;1051.71;0.697935;0.555707;0.796217;0.000731153;0.467412;0.633961;0.448508;-3.28233e-07;0.448508
86;124.5;0.467651;0;1;0.292593;320.025;0.0794256;0.733826;0.637278;0.655867;0.77476;0.467651;1148.85;0.971657;0.493738;0.50814;0.000669221;0.467651;0.258206;0.231642;-3.28233e-07;0.231642
87;149.5;0.476766;0;1;6.70479;208.95;0.072481;0.738383;0.645689;0.892536;0.871879;0.476766;657.865;0.723432;0.562963;0.778184;0.00116147;0.476766;0.60557;0.434325;-3.28233e-07;0.434325
88;317;0.477362;0;1;0.474185;414.971;0.0497755;0.738681;0.646236;0.92245;0.899296;0.477362;1265.61;0.700564;0.581157;0.829556;0.000603489;0.477362;0.688162;0.464301;-3.28233e-07;0.464301
89;569;0.486306;0;0.8;1.01639;879.215;0.0371526;0.743153;0.654382;0.851805;0.769219;0.486306;3095.91;0.76823;0.503363;0.655225;0.000245221;0.486306;0.429319;0.400716;-3.28233e-07;0.400716
90;230;0.495893;0;1;4.04;306.951;0.0584361;0.747947;0.663006;0.919619;0.886553;0.495893;925.597;0.720957;0.58779;0.815291;0.000814953;0.495893;0.664699;0.473104;-3.28233e-07;0.473104
91;384.5;0.498504;0;1;2.57473;508.381;0.0451957;0.749252;0.665335;0.92473;0.86731;0.498504;1561.53;0.719491;0.577052;0.802027;0.000482223;0.498504;0.643248;0.480049;-3.28233e-07;0.480049
92;281;0.498766;0;1;0.458944;390.646;0.0528679;0.749383;0.665569;0.901905;0.905415;0.498766;1149;0.737959;0.602616;0.816598;0.000655244;0.498766;0.666832;0.456803;-3.28233e-07;0.456803
93;227;0.499273;0;0.8;4.22776;317.917;0.0588209;0.749636;0.66602;0.898731;0.88549;0.499273;955.471;0.741067;0.589754;0.795817;0.000787693;0.499273;0.633325;0.4539;-3.28233e-07;0.4539
94;373;0.501586;0;0.8;2.66854;506.017;0.0458871;0.750793;0.668075;0.913859;0.878741;0.501586;1527.76;0.731048;0.587065;0.803046;0.000491871;0.501586;0.644883;0.47076;-3.28233e-07;0.47076
95;172.5;0.511855;0;1;0.454338;236.995;0.0674762;0.755928;0.677122;0.911115;0.893161;0.511855;694.572;0.743179;0.604779;0.813773;0.00107455;0.511855;0.662226;0.474359;-3.28233e-07;0.474359
96;307;0.513108;0;0.8;2.91769;455.515;0.0505796;0.756554;0.678218;0.877077;0.803976;0.513108;1480.69;0.77327;0.545271;0.705149;0.00050364;0.513108;0.497235;0.440307;-3.28233e-07;0.440307
97;305.5;0.516464;0;1;3.14385;397.193;0.0507037;0.758232;0.681143;0.937945;0.910823;0.516464;1134.76;0.726207;0.6204;0.854302;0.000655719;0.516464;0.729832;0.505778;-3.28233e-07;0.505778
98;300;0.521623;0;1;2.34316;478.985;0.0511663;0.760812;0.685614;0.847727;0.793695;0.521623;1560.14;0.808767;0.544168;0.672837;0.000475318;0.521623;0.452709;0.415974;-3.28233e-07;0.415974
99;465.5;0.535276;0;1;1.31352;889.437;0.0410757;0.767638;0.697303;0.778018;0.810452;0.535276;2789.6;0.896255;0.56513;0.630546;0.000263467;0.535276;0.397588;0.356691;-3.28233e-07;0.356691
100;162.5;0.539148;0;1;0.47449;221.115;0.0695214;0.769574;0.70058;0.922945;0.911787;0.539148;613.539;0.75907;0.63878;0.84153;0.0011949;0.539148;0.708173;0.504491;-3.28233e-07;0.504491
101;305.5;0.539475;0;1;2.16756;563.283;0.0507037;0.769738;0.700856;0.79294;0.604343;0.539475;2357.16;0.88387;0.423558;0.479208;0.000310952;0.539475;0.22964;0.372534;-3.28233e-07;0.372534
102;243;0.540142;0;0.8;0.469072;334.023;0.0568515;0.770071;0.701419;0.918529;0.896417;0.540142;941.595;0.763632;0.628764;0.823386;0.00077809;0.540142;0.677964;0.50032;-3.28233e-07;0.50032
103;390;0.548332;0.2;1;0.434343;548.309;0.0448758;0.774166;0.708287;0.910254;0.835207;0.548332;1642.85;0.778121;0.591566;0.76025;0.000443603;0.548332;0.57798;0.496584;-3.28233e-07;0.496584
104;385;0.559576;0.2;1;0.451923;549.47;0.0451663;0.779788;0.7176;0.906079;0.871517;0.559576;1557.26;0.791984;0.6254;0.789663;0.000464609;0.559576;0.623568;0.499213;-3.28233e-07;0.499213
105;387;0.561365;0.2;1;0.451168;550.839;0.0450494;0.780683;0.71907;0.907709;0.872209;0.561365;1556.71;0.792181;0.627179;0.791712;0.00046424;0.561365;0.626807;0.50216;-3.28233e-07;0.50216
106;281.5;0.565297;0.2;1;0.470149;380.882;0.0528209;0.782649;0.722287;0.931903;0.88591;0.565297;1055.03;0.775067;0.639882;0.825583;0.000683271;0.565297;0.681587;0.531955;-3.28233e-07;0.531955
107;303.5;0.572545;0.2;1;0.459016;409.64;0.0508705;0.786272;0.728176;0.934685;0.900715;0.572545;1107.01;0.779061;0.655879;0.841885;0.000648185;0.572545;0.70877;0.540102;-3.28233e-07;0.540102
108;480;0.575325;0.2;1;2.18824;667.216;0.0404505;0.787663;0.730421;0.921635;0.863427;0.575325;1875.18;0.792527;0.630665;0.795765;0.000381982;0.575325;0.633242;0.526985;-3.28233e-07;0.526985
109;290;0.586363;0.2;0.8;0.399272;497.177;0.052041;0.793182;0.739255;0.831973;0.820565;0.586363;1452.71;0.888556;0.606606;0.682688;0.000489636;0.586363;0.466062;0.435475;-3.28233e-07;0.435475
110;442;0.591459;0.2;1;0.467899;591.957;0.0421535;0.79573;0.743292;0.942363;0.920231;0.591459;1533.94;0.788753;0.684;0.867192;0.000462222;0.591459;0.752021;0.562299;-3.28233e-07;0.562299
111;530.5;0.600544;0.2;1;0.445131;749.646;0.0384771;0.800272;0.750425;0.919188;0.865174;0.600544;2046.54;0.816399;0.649248;0.795258;0.000344483;0.600544;0.632435;0.541108;-3.28233e-07;0.541108
112;345.5;0.612917;0.2;1;0.463504;464.233;0.0476783;0.806459;0.760011;0.944995;0.887934;0.612917;1219.3;0.804248;0.67484;0.839094;0.000573762;0.612917;0.704078;0.580796;-3.28233e-07;0.580796
113;184.5;0.631578;0.2;0.8;0.441909;274.575;0.0652449;0.815789;0.774193;0.901069;0.884948;0.631578;710.346;0.859194;0.68512;0.797399;0.000973593;0.631578;0.635845;0.540346;-3.28233e-07;0.540346
114;326.5;0.633504;0.2;0.8;1.46573;826.513;0.049046;0.816752;0.775638;0.691124;0.609242;0.633504;3100.1;1.12228;0.472551;0.421062;0.000222823;0.633504;0.177293;0.318634;-3.28233e-07;0.318634
115;573;0.646956;0.2;1;0.446686;814.099;0.0370227;0.823478;0.785638;0.924654;0.845277;0.646956;2172.85;0.849657;0.664082;0.781589;0.000315314;0.646956;0.610881;0.579779;-3.28233e-07;0.579779
116;180.5;0.660792;0.2;0.8;0.407692;282.084;0.0659639;0.830396;0.795756;0.883592;0.801931;0.660792;783.495;0.900592;0.638141;0.70858;0.000867169;0.660792;0.502086;0.538362;-3.28233e-07;0.538362
117;276;0.671486;0.2;1;0.488746;361.763;0.0533446;0.835743;0.80346;0.966369;0.940904;0.671486;848.183;0.831421;0.755979;0.909261;0.000795908;0.671486;0.826756;0.652277;-3.28233e-07;0.652277
118;363;0.673297;0.2;1;0.457471;498.344;0.0465149;0.836648;0.804755;0.944505;0.880045;0.673297;1247.2;0.852039;0.70822;0.831207;0.000540688;0.673297;0.690904;0.624445;-3.28233e-07;0.624445
119;158;0.698659;0.2;1;4.91262;217.661;0.0705044;0.849329;0.822601;0.946129;0.86213;0.698659;543.993;0.869438;0.709188;0.815686;0.00122111;0.698659;0.665343;0.645733;-3.28233e-07;0.645733
120;294.5;0.702293;0.2;1;0.373602;517.984;0.0516419;0.851146;0.825114;0.837712;0.808314;0.702293;1376.57;0.984962;0.666952;0.677134;0.000481531;0.702293;0.458511;0.508391;-3.28233e-07;0.508391
121;311.5;0.739288;0.2;1;0.409836;458.428;0.050213;0.869644;0.850104;0.919632;0.774506;0.739288;1234.1;0.924397;0.658411;0.71226;0.000525696;0.739288;0.507314;0.639604;-3.28233e-07;0.639604
122;423;0.960961;0.2;1;0.434457;645.574;0.0430898;0.98048;0.980092;0.9132;0.8638;0.960961;1351.58;1.07325;0.846603;0.788822;0.00042574;0.960961;0.62224;0.801697;-3.28233e-07;0.801697
